…
```r
#For this part of the assignment, you can ignore the missing values in the 
# dataset.
data$date <- as.Date(data$date)
steps_per_day <- data %>%
        group_by(date)%>%
        summarise(total_steps = sum(steps, na.rm = TRUE))
steps_per_day
```

```
## # A tibble: 61 × 2
##          date total_steps
##        <date>       <int>
## 1  2012-10-01           0
## 2  2012-10-02         126
## 3  2012-10-03       11352
## 4  2012-10-04       12116
## 5  2012-10-05       13294
## 6  2012-10-06       15420
## 7  2012-10-07       11015
## 8  2012-10-08           0
## 9  2012-10-09       12811
## 10 2012-10-10        9900
## # ... with 51 more rows
```
…
Calculate and report the mean and median total number of steps taken per day


```r
mean_median_steps <- data %>%
        group_by(date) %>%
        summarise(mean = mean(steps, na.rm = FALSE),
                  median = median(steps, na.rm = FALSE))
mean_median_steps 
```

```
## # A tibble: 61 × 3
##          date     mean median
##        <date>    <dbl>  <dbl>
## 1  2012-10-01       NA     NA
## 2  2012-10-02  0.43750      0
## 3  2012-10-03 39.41667      0
## 4  2012-10-04 42.06944      0
## 5  2012-10-05 46.15972      0
## 6  2012-10-06 53.54167      0
## 7  2012-10-07 38.24653      0
## 8  2012-10-08       NA     NA
## 9  2012-10-09 44.48264      0
## 10 2012-10-10 34.37500      0
## # ... with 51 more rows
```
…
```r
steps_per_day_2 <- data_copy %>%
        group_by(date)%>%
        summarise(total_steps = sum(steps, na.rm = TRUE))
steps_per_day_2
```

```
## # A tibble: 61 × 2
##          date total_steps
##        <date>       <dbl>
## 1  2012-10-01    10766.19
## 2  2012-10-02      126.00
## 3  2012-10-03    11352.00
## 4  2012-10-04    12116.00
## 5  2012-10-05    13294.00
## 6  2012-10-06    15420.00
## 7  2012-10-07    11015.00
## 8  2012-10-08    10766.19
## 9  2012-10-09    12811.00
## 10 2012-10-10     9900.00
## # ... with 51 more rows
```
…
```r
# Calculate and report the mean and median total number of steps taken per day

mean_median_steps_2 <- data_copy %>%
        group_by(date) %>%
        summarise(mean = mean(steps, na.rm = FALSE),
                  median = median(steps, na.rm = FALSE))
mean_median_steps_2 
```

```
## # A tibble: 61 × 3
##          date     mean   median
##        <date>    <dbl>    <dbl>
## 1  2012-10-01 37.38260 34.11321
## 2  2012-10-02  0.43750  0.00000
## 3  2012-10-03 39.41667  0.00000
## 4  2012-10-04 42.06944  0.00000
## 5  2012-10-05 46.15972  0.00000
## 6  2012-10-06 53.54167  0.00000
## 7  2012-10-07 38.24653  0.00000
## 8  2012-10-08 37.38260 34.11321
## 9  2012-10-09 44.48264  0.00000
## 10 2012-10-10 34.37500  0.00000
## # ... with 51 more rows
```
…
```r
# Creating new factor variable using ifelse and weekdays() 
data_copy <- data_copy%>%
        mutate(wdays = ifelse(weekdays(data_copy$date) == "sábado" |
                                      weekdays(data_copy$date) == "domingo",
                              "Weekends", "Weekday"))
steps_per_weekdays <- data_copy %>%
        group_by(wdays, interval)%>%
        summarise(avg_steps = mean(steps, na.rm = TRUE))
steps_per_weekdays
```

```
## Source: local data frame [576 x 3]
## Groups: wdays [?]
## 
##      wdays interval  avg_steps
##      <chr>    <int>      <dbl>
## 1  Weekday        0 2.25115304
## 2  Weekday        5 0.44528302
## 3  Weekday       10 0.17316562
## 4  Weekday       15 0.19790356
## 5  Weekday       20 0.09895178
## 6  Weekday       25 1.59035639
## 7  Weekday       30 0.69266247
## 8  Weekday       35 1.13794549
## 9  Weekday       40 0.00000000
## 10 Weekday       45 1.79622642
## # ... with 566 more rows
```
…
